sex,group,weapon,year
male,Residivis,Benda tajam,2018
male,Residivis,Senjata pelontar,2018
male,Serikat buruh,Senjata pelontar,2018
female,Serikat buruh,Api,2019
male,Separatis,Peledak,2019
female,Serikat buruh,Tidak ada,2019
male,Kelompok agama,Senjata api rakitan,2017
male,Serikat buruh,Senjata pelontar,2019
female,Separatis,Senjata api organik,2018
male,Residivis,Api,2018
male,Serikat buruh,Senjata api organik,2017
female,Separatis,Senjata api rakitan,2018
female,Residivis,Senjata pelontar,2019
male,Serikat buruh,Senjata api rakitan,2018
male,Residivis,Senjata api organik,2018
male,Serikat buruh,Api,2019
male,Serikat buruh,Api,2017
female,Residivis,Api,2019
female,Kelompok agama,Tidak ada,2019
male,Serikat buruh,Senjata api rakitan,2018
female,Serikat buruh,Senjata api organik,2019
male,Kelompok agama,Tidak ada,2019
female,Serikat buruh,Peledak,2019
male,Serikat buruh,Senjata api organik,2019
female,Separatis,Senjata pelontar,2019
male,Separatis,Api,2019
male,Separatis,Tidak ada,2019
female,Kelompok agama,Senjata api rakitan,2019
male,Serikat buruh,Tidak ada,2017
male,Serikat buruh,Senjata pelontar,2019
male,Separatis,Senjata beracun,2019
male,Separatis,Senjata beracun,2019
male,Serikat buruh,Peledak,2019
female,Milisi,Api,2019
male,Residivis,Senjata pelontar,2018
female,Residivis,Senjata pelontar,2019
female,Kelompok agama,Api,2018
male,Serikat buruh,Api,2019
male,Separatis,Senjata pelontar,2019
male,Residivis,Peledak,2017
female,Separatis,Senjata pelontar,2018
male,Residivis,Tidak ada,2019
female,Residivis,Benda tajam,2019
female,Kelompok agama,Senjata pelontar,2018
female,Serikat buruh,Senjata api rakitan,2019
male,Kelompok agama,Senjata pelontar,2019
female,Residivis,Tidak ada,2019
male,Serikat buruh,Lainnya,2019
female,Serikat buruh,Api,2018
male,Serikat buruh,Senjata api rakitan,2019
male,Residivis,Senjata pelontar,2019
male,Separatis,Api,2019
female,Serikat buruh,Senjata pelontar,2019
female,Residivis,Senjata pelontar,2019
male,Residivis,Senjata api rakitan,2018
female,Serikat buruh,Tidak ada,2019
male,Residivis,Senjata pelontar,2019
female,Kelompok agama,Peledak,2019
male,Residivis,Senjata api organik,2019
female,Separatis,Api,2018
female,Serikat buruh,Tidak jelas,2020
male,Residivis,Senjata pelontar,2018
female,Serikat buruh,Senjata api rakitan,2017
female,Residivis,Lainnya,2019
female,Serikat buruh,Senjata api rakitan,2019
male,Residivis,Senjata pelontar,2018
male,Separatis,Senjata api rakitan,2018
male,Kelompok agama,Tidak ada,2019
female,Kelompok agama,Senjata beracun,2018
male,Kelompok agama,Tidak ada,2019
female,Residivis,Senjata pelontar,2017
male,Separatis,Tidak ada,2019
female,Residivis,Senjata api organik,2019
male,Separatis,Senjata api organik,2020
female,Separatis,Senjata pelontar,2020
female,Serikat buruh,Senjata pelontar,2019
male,Residivis,Peledak,2018
male,Separatis,Senjata beracun,2018
male,Serikat buruh,Tidak ada,2019
female,Residivis,Senjata api organik,2019
male,Serikat buruh,Peledak,2019
male,Serikat buruh,Api,2019
female,Separatis,Senjata api rakitan,2017
male,Residivis,Tidak ada,2019
female,Serikat buruh,Tidak ada,2019
female,Serikat buruh,Senjata api organik,2019
male,Residivis,Senjata pelontar,2018
male,Residivis,Lainnya,2018
male,Residivis,Senjata api organik,2018
female,Serikat buruh,Tidak ada,2019
male,Serikat buruh,Tidak ada,2019
male,Serikat buruh,Senjata api organik,2019
male,Kelompok agama,Benda tajam,2019
male,Residivis,Senjata beracun,2018
female,Serikat buruh,Api,2018
female,Residivis,Senjata api rakitan,2019
female,Serikat buruh,Api,2019
female,Residivis,Api,2019
female,Residivis,Senjata pelontar,2018
female,Serikat buruh,Senjata api rakitan,2019
female,Serikat buruh,Senjata pelontar,2018
female,Residivis,Senjata api organik,2018
female,Serikat buruh,Api,2019
female,Separatis,Peledak,2019
male,Separatis,Peledak,2019
female,Separatis,Tidak ada,2019
female,Serikat buruh,Tidak ada,2018
male,Residivis,Senjata pelontar,2018
female,Serikat buruh,Senjata api rakitan,2017
male,Residivis,Api,2019
female,Serikat buruh,Api,2018
female,Separatis,Peledak,2019
female,Serikat buruh,Senjata pelontar,2019
female,Serikat buruh,Peledak,2019
female,Kelompok agama,Senjata api rakitan,2019
male,Residivis,Senjata pelontar,2019
female,Serikat buruh,Api,2018
female,Residivis,Tidak jelas,2020
male,Kelompok agama,Senjata beracun,2018
female,Residivis,Tidak ada,2019
female,Serikat buruh,Senjata api rakitan,2018
female,Residivis,Peledak,2019
male,Residivis,Peledak,2018
male,Serikat buruh,Api,2018
male,Serikat buruh,Senjata api rakitan,2019
female,Residivis,Api,2019
male,Separatis,Tidak ada,2019
female,Serikat buruh,Tidak ada,2018
female,Kelompok agama,Tidak ada,2019
male,Residivis,Tidak ada,2018
male,Residivis,Tidak ada,2019
female,Residivis,Peledak,2018
female,Kelompok agama,Senjata api organik,2019
male,Serikat buruh,Api,2019
male,Serikat buruh,Senjata pelontar,2018
female,Serikat buruh,Peledak,2018
female,Residivis,Senjata api organik,2019
female,Kelompok agama,Senjata pelontar,2019
male,Residivis,Senjata api rakitan,2019
male,Kelompok agama,Api,2018
male,Serikat buruh,Senjata api organik,2019
male,Residivis,Senjata pelontar,2019
female,Residivis,Tidak ada,2019
female,Residivis,Tidak jelas,2019
female,Serikat buruh,Peledak,2019
female,Serikat buruh,Api,2019
female,Residivis,Senjata api rakitan,2019
male,Residivis,Senjata api rakitan,2018
female,Residivis,Senjata pelontar,2019
male,Residivis,Senjata pelontar,2017
female,Serikat buruh,Senjata pelontar,2019
female,Serikat buruh,Api,2019
female,Separatis,Peledak,2018
female,Serikat buruh,Senjata api rakitan,2018
female,Residivis,Senjata pelontar,2019
male,Residivis,Senjata api organik,2018
female,Residivis,Senjata api organik,2017
female,Residivis,Senjata api rakitan,2019
male,Serikat buruh,Tidak jelas,2019
male,Serikat buruh,Api,2017
female,Serikat buruh,Peledak,2019
female,Residivis,Tidak ada,2019
female,Serikat buruh,Peledak,2019
female,Serikat buruh,Senjata api rakitan,2019
male,Serikat buruh,Tidak ada,2019
female,Serikat buruh,Senjata api organik,2019
female,Separatis,Lainnya,2017
female,Serikat buruh,Tidak ada,2019
female,Separatis,Senjata api organik,2020
female,Serikat buruh,Senjata api rakitan,2019
female,Residivis,Peledak,2019
female,Serikat buruh,Senjata pelontar,2019
male,Separatis,Senjata beracun,2019
male,Residivis,Benda tajam,2019
male,Serikat buruh,Peledak,2018
male,Separatis,Tidak ada,2018
male,Residivis,Senjata pelontar,2019
female,Serikat buruh,Peledak,2018
male,Kelompok agama,Api,2019
male,Residivis,Peledak,2019
male,Residivis,Senjata api organik,2019
female,Kelompok agama,Tidak ada,2019
male,Residivis,Senjata api rakitan,2019
male,Residivis,Benda tajam,2019
female,Residivis,Senjata pelontar,2018
female,Residivis,Senjata beracun,2018
male,Separatis,Api,2019
male,Serikat buruh,Senjata pelontar,2019
male,Serikat buruh,Api,2018
female,Separatis,Api,2019
male,Kelompok agama,Senjata api rakitan,2018
male,Residivis,Senjata api organik,2018
male,Serikat buruh,Peledak,2019
male,Serikat buruh,Senjata api rakitan,2018
male,Separatis,Senjata pelontar,2019
female,Separatis,Senjata pelontar,2019
male,Serikat buruh,Api,2019
female,Separatis,Tidak ada,2019
male,Serikat buruh,Tidak ada,2019
female,Serikat buruh,Peledak,2019
male,Serikat buruh,Senjata api organik,2020
female,Serikat buruh,Senjata api organik,2019
female,Kelompok agama,Tidak ada,2019
male,Serikat buruh,Peledak,2017
male,Serikat buruh,Lainnya,2019
female,Serikat buruh,Tidak ada,2019
male,Serikat buruh,Tidak ada,2019
female,Kelompok agama,Senjata pelontar,2017
male,Residivis,Senjata api rakitan,2019
male,Residivis,Api,2019
female,Separatis,Senjata api organik,2017
male,Serikat buruh,Senjata api organik,2019
female,Residivis,Peledak,2020
female,Separatis,Lainnya,2019
male,Residivis,Senjata api organik,2019
female,Serikat buruh,Senjata api organik,2019
male,Separatis,Senjata beracun,2019
male,Serikat buruh,Peledak,2019
female,Serikat buruh,Tidak ada,2019
male,Serikat buruh,Senjata api organik,2019
male,Residivis,Senjata beracun,2019
female,Serikat buruh,Senjata api organik,2019
female,Serikat buruh,Senjata pelontar,2019
female,Serikat buruh,Senjata pelontar,2019
female,Residivis,Api,2019
male,Serikat buruh,Senjata api organik,2019
male,Residivis,Senjata api organik,2019
male,Residivis,Senjata api rakitan,2019
female,Residivis,Senjata api rakitan,2019
female,Residivis,Senjata api organik,2019
female,Serikat buruh,Api,2018
female,Separatis,Api,2019
male,Separatis,Tidak ada,2019
female,Separatis,Tidak ada,2019
male,Serikat buruh,Senjata api organik,2019
male,Serikat buruh,Lainnya,2019
female,Residivis,Senjata api organik,2019
female,Residivis,Api,2018
female,Serikat buruh,Senjata api rakitan,2019
female,Separatis,Senjata pelontar,2019
male,Separatis,Senjata api rakitan,2019
female,Serikat buruh,Senjata api rakitan,2019
male,Serikat buruh,Benda tajam,2019
female,Serikat buruh,Tidak jelas,2019
male,Residivis,Peledak,2017
female,Residivis,Senjata api organik,2019
female,Serikat buruh,Tidak ada,2018
male,Separatis,Senjata beracun,2019
female,Separatis,Lainnya,2019
male,Residivis,Peledak,2018
female,Serikat buruh,Api,2019
female,Residivis,Senjata api rakitan,2017
female,Residivis,Senjata pelontar,2019
male,Separatis,Senjata pelontar,2019
male,Residivis,Senjata api organik,2019
male,Kelompok agama,Senjata api rakitan,2019
female,Serikat buruh,Peledak,2019
male,Residivis,Tidak ada,2018
female,Separatis,Peledak,2019
male,Kelompok agama,Tidak jelas,2019
male,Serikat buruh,Senjata api organik,2019
female,Serikat buruh,Senjata api rakitan,2019
male,Kelompok agama,Tidak ada,2019
male,Serikat buruh,Api,2019
female,Residivis,Peledak,2019
female,Serikat buruh,Senjata pelontar,2019
male,Residivis,Senjata pelontar,2019
male,Separatis,Tidak ada,2019
female,Residivis,Senjata pelontar,2019
male,Residivis,Peledak,2019
female,Separatis,Senjata pelontar,2019
female,Residivis,Senjata api rakitan,2019
male,Residivis,Senjata api organik,2019
male,Serikat buruh,Api,2019
female,Separatis,Tidak jelas,2019
female,Serikat buruh,Senjata api rakitan,2019
male,Residivis,Senjata api organik,2019
male,Residivis,Tidak ada,2018
female,Residivis,Api,2018
male,Separatis,Peledak,2019
male,Kelompok agama,Tidak ada,2019
female,Serikat buruh,Senjata api rakitan,2019
male,Separatis,Senjata api organik,2017
male,Serikat buruh,Senjata api rakitan,2019
male,Serikat buruh,Peledak,2019
male,Residivis,Peledak,2019
male,Residivis,Api,2019
female,Serikat buruh,Senjata pelontar,2020
female,Residivis,Senjata beracun,2019
female,Serikat buruh,Tidak ada,2019
female,Separatis,Senjata api organik,2020
female,Separatis,Senjata api organik,2019
male,Serikat buruh,Senjata pelontar,2018
female,Separatis,Tidak ada,2019
female,Serikat buruh,Tidak ada,2019
female,Kelompok agama,Senjata api rakitan,2019
male,Separatis,Peledak,2018
male,Residivis,Senjata api organik,2019
male,Separatis,Senjata pelontar,2018
female,Residivis,Tidak ada,2018
female,Serikat buruh,Api,2017
male,Residivis,Senjata api organik,2019
female,Serikat buruh,Peledak,2019
female,Separatis,Tidak ada,2019
female,Kelompok agama,Api,2017
female,Kelompok agama,Benda tajam,2019
female,Serikat buruh,Benda tajam,2019
female,Serikat buruh,Tidak ada,2018
male,Serikat buruh,Senjata pelontar,2018
male,Residivis,Senjata beracun,2019
female,Kelompok agama,Peledak,2017
male,Residivis,Senjata api organik,2019
female,Serikat buruh,Senjata api organik,2019
male,Kelompok agama,Peledak,2017
male,Serikat buruh,Tidak ada,2019
female,Residivis,Tidak ada,2019
female,Serikat buruh,Tidak jelas,2019
male,Residivis,Senjata pelontar,2019
male,Serikat buruh,Api,2019
female,Residivis,Tidak ada,2019
male,Kelompok agama,Tidak ada,2019
female,Serikat buruh,Senjata pelontar,2017
male,Residivis,Senjata pelontar,2019
female,Residivis,Peledak,2020
male,Residivis,Senjata api rakitan,2018
male,Serikat buruh,Senjata api rakitan,2019
male,Serikat buruh,Tidak ada,2017
male,Separatis,Peledak,2018
female,Separatis,Senjata api organik,2018
female,Residivis,Tidak ada,2019
male,Residivis,Senjata api rakitan,2019
female,Separatis,Senjata api organik,2019
female,Separatis,Senjata api rakitan,2019
male,Kelompok agama,Tidak ada,2019
male,Serikat buruh,Senjata api rakitan,2020
female,Residivis,Peledak,2019
male,Separatis,Tidak ada,2019
male,Serikat buruh,Senjata api organik,2018
female,Serikat buruh,Senjata api rakitan,2019
female,Serikat buruh,Senjata pelontar,2018
male,Separatis,Senjata api organik,2017
male,Serikat buruh,Senjata api rakitan,2019
female,Residivis,Senjata api rakitan,2019
male,Separatis,Senjata pelontar,2017
female,Separatis,Tidak ada,2019
male,Separatis,Senjata api rakitan,2020
male,Serikat buruh,Senjata api organik,2019
female,Residivis,Senjata api organik,2019
female,Residivis,Senjata api rakitan,2019
female,Residivis,Senjata api rakitan,2019
female,Residivis,Senjata pelontar,2018
female,Residivis,Tidak ada,2017
male,Separatis,Api,2019
male,Separatis,Api,2019
female,Residivis,Senjata api organik,2018
male,Residivis,Senjata api rakitan,2017
female,Serikat buruh,Senjata api organik,2019
female,Residivis,Tidak ada,2017
female,Residivis,Peledak,2019
female,Residivis,Senjata api rakitan,2018
male,Serikat buruh,Api,2019
male,Separatis,Tidak ada,2019
male,Residivis,Api,2020
male,Residivis,Api,2017
female,Serikat buruh,Senjata api organik,2019
male,Serikat buruh,Senjata pelontar,2017
female,Kelompok agama,Senjata api rakitan,2018
male,Residivis,Peledak,2019
female,Serikat buruh,Tidak ada,2017
female,Serikat buruh,Peledak,2018
male,Separatis,Api,2019
female,Serikat buruh,Senjata api organik,2018
male,Separatis,Peledak,2019
female,Residivis,Tidak ada,2019
female,Serikat buruh,Peledak,2019
male,Kelompok agama,Senjata api organik,2019
male,Serikat buruh,Senjata api rakitan,2019
female,Serikat buruh,Senjata pelontar,2019
male,Kelompok agama,Lainnya,2019
female,Residivis,Peledak,2019
female,Separatis,Tidak ada,2019
male,Residivis,Peledak,2019
female,Serikat buruh,Senjata api organik,2019
female,Residivis,Senjata api rakitan,2019
male,Residivis,Senjata api rakitan,2019
female,Kelompok agama,Peledak,2019
male,Serikat buruh,Peledak,2019
female,Serikat buruh,Senjata api rakitan,2019
female,Separatis,Senjata api organik,2017
male,Kelompok agama,Api,2019
female,Serikat buruh,Senjata api rakitan,2019
female,Serikat buruh,Tidak ada,2019
female,Serikat buruh,Peledak,2019
male,Residivis,Tidak ada,2019
female,Kelompok agama,Peledak,2019
male,Serikat buruh,Senjata api rakitan,2019
female,Separatis,Peledak,2018
female,Serikat buruh,Senjata pelontar,2019
male,Serikat buruh,Senjata api organik,2019
male,Serikat buruh,Senjata pelontar,2019
male,Residivis,Senjata pelontar,2019
male,Serikat buruh,Lainnya,2017
female,Serikat buruh,Senjata api rakitan,2019
male,Serikat buruh,Tidak ada,2017
female,Serikat buruh,Senjata api rakitan,2019
female,Serikat buruh,Tidak ada,2019
female,Residivis,Api,2019
female,Serikat buruh,Peledak,2019
female,Separatis,Peledak,2019
male,Separatis,Senjata api organik,2019
female,Serikat buruh,Api,2019
female,Separatis,Senjata pelontar,2019
male,Kelompok agama,Api,2019
male,Serikat buruh,Api,2017
male,Kelompok agama,Senjata api rakitan,2019
male,Separatis,Senjata api organik,2019
female,Residivis,Benda tumpul,2019
male,Residivis,Tidak ada,2018
female,Serikat buruh,Tidak ada,2018
male,Serikat buruh,Senjata api organik,2019
male,Residivis,Peledak,2019
male,Kelompok agama,Senjata api rakitan,2019
male,Separatis,Tidak ada,2019
female,Separatis,Tidak ada,2019
female,Residivis,Api,2019
male,Separatis,Senjata api rakitan,2018
female,Serikat buruh,Tidak ada,2019
female,Kelompok agama,Tidak ada,2019
female,Residivis,Tidak ada,2018
female,Kelompok agama,Senjata api rakitan,2018
female,Separatis,Peledak,2019
male,Separatis,Senjata api rakitan,2017
female,Serikat buruh,Api,2019
female,Residivis,Api,2019
female,Serikat buruh,Api,2019
female,Separatis,Senjata api rakitan,2019
male,Residivis,Tidak ada,2019
female,Kelompok agama,Api,2018
female,Residivis,Senjata api organik,2019
female,Serikat buruh,Tidak ada,2018
female,Serikat buruh,Senjata pelontar,2019
male,Serikat buruh,Lainnya,2019
male,Residivis,Senjata api organik,2019
male,Residivis,Senjata pelontar,2019
male,Kelompok agama,Tidak ada,2019
male,Serikat buruh,Api,2019
male,Separatis,Api,2019
female,Residivis,Senjata api rakitan,2019
female,Kelompok agama,Tidak ada,2016
female,Residivis,Peledak,2019
male,Serikat buruh,Senjata pelontar,2019
female,Serikat buruh,Senjata pelontar,2020
male,Serikat buruh,Senjata api organik,2019
female,Serikat buruh,Senjata api organik,2019
female,Serikat buruh,Lainnya,2019
female,Serikat buruh,Senjata api organik,2018
male,Separatis,Senjata api rakitan,2019
female,Serikat buruh,Tidak jelas,2019
female,Separatis,Senjata api organik,2017
female,Serikat buruh,Senjata beracun,2019
female,Kelompok agama,Senjata api organik,2019
female,Residivis,Senjata pelontar,2019
male,Serikat buruh,Senjata pelontar,2020
female,Serikat buruh,Lainnya,2019
male,Residivis,Senjata api rakitan,2020
female,Serikat buruh,Senjata api rakitan,2018
female,Separatis,Senjata api organik,2019
male,Separatis,Senjata api organik,2019
female,Separatis,Senjata pelontar,2019
female,Kelompok agama,Senjata pelontar,2018
female,Separatis,Senjata api rakitan,2019
female,Separatis,Peledak,2019
male,Separatis,Tidak ada,2019
female,Kelompok agama,Api,2020
male,Residivis,Api,2019
male,Separatis,Senjata api rakitan,2019
female,Kelompok agama,Peledak,2019
male,Residivis,Tidak ada,2019
female,Kelompok agama,Tidak ada,2018
male,Residivis,Senjata api rakitan,2019
male,Serikat buruh,Senjata api organik,2018
male,Serikat buruh,Senjata pelontar,2019
male,Serikat buruh,Api,2017
female,Residivis,Tidak ada,2019
female,Serikat buruh,Benda tajam,2017
female,Residivis,Senjata api organik,2019
female,Residivis,Senjata api organik,2019
male,Serikat buruh,Tidak ada,2019
male,Residivis,Tidak jelas,2019
male,Serikat buruh,Peledak,2019
male,Serikat buruh,Api,2019
male,Residivis,Senjata api organik,2019
female,Residivis,Senjata api rakitan,2019
female,Serikat buruh,Peledak,2019
female,Serikat buruh,Senjata api rakitan,2019
male,Serikat buruh,Senjata pelontar,2019
male,Serikat buruh,Senjata api organik,2018
female,Separatis,Senjata api rakitan,2019
female,Residivis,Senjata api rakitan,2018
female,Residivis,Senjata pelontar,2019
